<?xml version="1.0" encoding="utf-8"?>
<!-- Generator: Adobe Illustrator 17.0.0, SVG Export Plug-In . SVG Version: 6.00 Build 0)  -->
<!DOCTYPE svg PUBLIC "-//W3C//DTD SVG 1.1//EN" "http://www.w3.org/Graphics/SVG/1.1/DTD/svg11.dtd">
<svg version="1.1" id="Layer_1" xmlns="http://www.w3.org/2000/svg" xmlns:xlink="http://www.w3.org/1999/xlink" x="0px" y="0px"
	 width="46px" height="46px" viewBox="1 1 46 46" enable-background="new 1 1 46 46" xml:space="preserve">
<g transform="translate(0, 0)">
	<g>
		<path fill="#444444" d="M46,47H2c-0.552,0-1-0.447-1-1V2c0-0.552,0.448-1,1-1h44c0.553,0,1,0.448,1,1v44
			C47,46.553,46.553,47,46,47z M3,45h42V3H3V45z"/>
	</g>
	<g>
		<path fill="#444444" d="M18,33c-0.162,0-0.324-0.039-0.472-0.118C17.203,32.708,17,32.369,17,32V16
			c0-0.369,0.203-0.708,0.528-0.882c0.324-0.174,0.718-0.156,1.026,0.05l12,8C30.833,23.354,31,23.666,31,24
			s-0.167,0.646-0.445,0.832l-12,8C18.387,32.943,18.194,33,18,33z M19,17.869v12.263L28.197,24L19,17.869z"/>
	</g>
</g>
</svg>
