<?xml version="1.0" encoding="utf-8"?>
<!-- Generator: Adobe Illustrator 17.0.0, SVG Export Plug-In . SVG Version: 6.00 Build 0)  -->
<!DOCTYPE svg PUBLIC "-//W3C//DTD SVG 1.1//EN" "http://www.w3.org/Graphics/SVG/1.1/DTD/svg11.dtd">
<svg version="1.1" id="Layer_1" xmlns="http://www.w3.org/2000/svg" xmlns:xlink="http://www.w3.org/1999/xlink" x="0px" y="0px"
	 fill="#f7f7f7" width="56.497px" height="45.914px" viewBox="0 0 56.497 45.914" enable-background="new 0 0 56.497 45.914" xml:space="preserve">
<g>
	<defs>
		<rect id="SVGID_1_" width="56.497" height="45.914"/>
	</defs>
	<clipPath id="SVGID_2_">
		<use xlink:href="#SVGID_1_"  overflow="visible"/>
	</clipPath>
	<path clip-path="url(#SVGID_2_)" d="M56.497,5.435C54.418,6.357,52.185,6.98,49.84,7.26c2.393-1.434,4.231-3.706,5.096-6.413
		c-2.239,1.329-4.72,2.293-7.36,2.813C45.461,1.407,42.449,0,39.115,0c-6.401,0-11.591,5.19-11.591,11.591
		c0,0.908,0.102,1.793,0.3,2.641C18.191,13.749,9.65,9.134,3.933,2.121C2.935,3.833,2.364,5.824,2.364,7.949
		c0,4.021,2.046,7.569,5.156,9.647c-1.9-0.06-3.687-0.581-5.25-1.449c-0.001,0.048-0.001,0.097-0.001,0.145
		c0,5.616,3.996,10.301,9.298,11.366c-0.973,0.265-1.997,0.407-3.054,0.407c-0.747,0-1.473-0.073-2.18-0.208
		c1.475,4.605,5.755,7.956,10.827,8.049c-3.967,3.109-8.964,4.962-14.395,4.962c-0.936,0-1.858-0.055-2.765-0.162
		c5.13,3.289,11.222,5.208,17.768,5.208c21.32,0,32.979-17.662,32.979-32.979c0-0.503-0.011-1.003-0.034-1.5
		C52.978,9.801,54.943,7.759,56.497,5.435"/>
</g>
</svg>
